<?xml version="1.0" encoding="UTF-8"?>
<session version="1.0">
<refactoring comment="Delete resource &apos;pg/src/main/java/com/gateway&apos;" deleteContents="false" description="Delete resource &apos;pg/src/main/java/com/gateway&apos;" element1="/pg/src/main/java/com/gateway" flags="7" id="org.eclipse.ltk.core.refactoring.delete.resources" resources="1" stamp="1449899479165"/>
</session>